%YAML 1.1
%TAG !u! tag:unity3d.com,2011:
--- !u!1001 &3137382153009695677
PrefabInstance:
  m_ObjectHideFlags: 0
  serializedVersion: 2
  m_Modification:
    serializedVersion: 3
    m_TransformParent: {fileID: 0}
    m_Modifications:
    - target: {fileID: -8679921383154817045, guid: 0c685f86597fb8b48977060e02506c9b, type: 3}
      propertyPath: m_LocalPosition.x
      value: 111.48
      objectReference: {fileID: 0}
    - target: {fileID: -8679921383154817045, guid: 0c685f86597fb8b48977060e02506c9b, type: 3}
      propertyPath: m_LocalPosition.y
      value: 1.187
      objectReference: {fileID: 0}
    - target: {fileID: -8679921383154817045, guid: 0c685f86597fb8b48977060e02506c9b, type: 3}
      propertyPath: m_LocalPosition.z
      value: 231.93
      objectReference: {fileID: 0}
    - target: {fileID: -8679921383154817045, guid: 0c685f86597fb8b48977060e02506c9b, type: 3}
      propertyPath: m_LocalRotation.w
      value: 0.53508234
      objectReference: {fileID: 0}
    - target: {fileID: -8679921383154817045, guid: 0c685f86597fb8b48977060e02506c9b, type: 3}
      propertyPath: m_LocalRotation.x
      value: -0.53508234
      objectReference: {fileID: 0}
    - target: {fileID: -8679921383154817045, guid: 0c685f86597fb8b48977060e02506c9b, type: 3}
      propertyPath: m_LocalRotation.y
      value: 0.46226284
      objectReference: {fileID: 0}
    - target: {fileID: -8679921383154817045, guid: 0c685f86597fb8b48977060e02506c9b, type: 3}
      propertyPath: m_LocalRotation.z
      value: 0.46226272
      objectReference: {fileID: 0}
    - target: {fileID: -8679921383154817045, guid: 0c685f86597fb8b48977060e02506c9b, type: 3}
      propertyPath: m_LocalEulerAnglesHint.x
      value: -90
      objectReference: {fileID: 0}
    - target: {fileID: -8679921383154817045, guid: 0c685f86597fb8b48977060e02506c9b, type: 3}
      propertyPath: m_LocalEulerAnglesHint.y
      value: 0
      objectReference: {fileID: 0}
    - target: {fileID: -8679921383154817045, guid: 0c685f86597fb8b48977060e02506c9b, type: 3}
      propertyPath: m_LocalEulerAnglesHint.z
      value: 81.648
      objectReference: {fileID: 0}
    - target: {fileID: -7511558181221131132, guid: 0c685f86597fb8b48977060e02506c9b, type: 3}
      propertyPath: m_Materials.Array.data[0]
      value: 
      objectReference: {fileID: 2100000, guid: e8deb0edeafd85842a17db314a58928f, type: 2}
    - target: {fileID: 919132149155446097, guid: 0c685f86597fb8b48977060e02506c9b, type: 3}
      propertyPath: m_Name
      value: SM_Fence
      objectReference: {fileID: 0}
    m_RemovedComponents: []
    m_RemovedGameObjects: []
    m_AddedGameObjects: []
    m_AddedComponents:
    - targetCorrespondingSourceObject: {fileID: 919132149155446097, guid: 0c685f86597fb8b48977060e02506c9b, type: 3}
      insertIndex: -1
      addedObject: {fileID: 5279997275870907308}
  m_SourcePrefab: {fileID: 100100000, guid: 0c685f86597fb8b48977060e02506c9b, type: 3}
--- !u!1 &2831446555394193132 stripped
GameObject:
  m_CorrespondingSourceObject: {fileID: 919132149155446097, guid: 0c685f86597fb8b48977060e02506c9b, type: 3}
  m_PrefabInstance: {fileID: 3137382153009695677}
  m_PrefabAsset: {fileID: 0}
--- !u!65 &5279997275870907308
BoxCollider:
  m_ObjectHideFlags: 0
  m_CorrespondingSourceObject: {fileID: 0}
  m_PrefabInstance: {fileID: 0}
  m_PrefabAsset: {fileID: 0}
  m_GameObject: {fileID: 2831446555394193132}
  m_Material: {fileID: 0}
  m_IncludeLayers:
    serializedVersion: 2
    m_Bits: 0
  m_ExcludeLayers:
    serializedVersion: 2
    m_Bits: 0
  m_LayerOverridePriority: 0
  m_IsTrigger: 0
  m_ProvidesContacts: 0
  m_Enabled: 1
  serializedVersion: 3
  m_Size: {x: 2.2196872, y: 0.2121958, z: 1.636677}
  m_Center: {x: -5.2650867e-10, y: -0.016380137, z: 0.8183384}
