%YAML 1.1
%TAG !u! tag:unity3d.com,2011:
--- !u!1001 &7749499254949514884
PrefabInstance:
  m_ObjectHideFlags: 0
  serializedVersion: 2
  m_Modification:
    serializedVersion: 3
    m_TransformParent: {fileID: 0}
    m_Modifications:
    - target: {fileID: -8679921383154817045, guid: f9e6ebc9235ae1c44a7223019e16f234, type: 3}
      propertyPath: m_LocalPosition.x
      value: -30.67424
      objectReference: {fileID: 0}
    - target: {fileID: -8679921383154817045, guid: f9e6ebc9235ae1c44a7223019e16f234, type: 3}
      propertyPath: m_LocalPosition.y
      value: -0.0000076232873
      objectReference: {fileID: 0}
    - target: {fileID: -8679921383154817045, guid: f9e6ebc9235ae1c44a7223019e16f234, type: 3}
      propertyPath: m_LocalPosition.z
      value: 213.27542
      objectReference: {fileID: 0}
    - target: {fileID: -8679921383154817045, guid: f9e6ebc9235ae1c44a7223019e16f234, type: 3}
      propertyPath: m_LocalRotation.w
      value: 0.7071067
      objectReference: {fileID: 0}
    - target: {fileID: -8679921383154817045, guid: f9e6ebc9235ae1c44a7223019e16f234, type: 3}
      propertyPath: m_LocalRotation.x
      value: -0.7071068
      objectReference: {fileID: 0}
    - target: {fileID: -8679921383154817045, guid: f9e6ebc9235ae1c44a7223019e16f234, type: 3}
      propertyPath: m_LocalRotation.y
      value: 0
      objectReference: {fileID: 0}
    - target: {fileID: -8679921383154817045, guid: f9e6ebc9235ae1c44a7223019e16f234, type: 3}
      propertyPath: m_LocalRotation.z
      value: -0
      objectReference: {fileID: 0}
    - target: {fileID: -8679921383154817045, guid: f9e6ebc9235ae1c44a7223019e16f234, type: 3}
      propertyPath: m_LocalEulerAnglesHint.x
      value: 0
      objectReference: {fileID: 0}
    - target: {fileID: -8679921383154817045, guid: f9e6ebc9235ae1c44a7223019e16f234, type: 3}
      propertyPath: m_LocalEulerAnglesHint.y
      value: 0
      objectReference: {fileID: 0}
    - target: {fileID: -8679921383154817045, guid: f9e6ebc9235ae1c44a7223019e16f234, type: 3}
      propertyPath: m_LocalEulerAnglesHint.z
      value: 0
      objectReference: {fileID: 0}
    - target: {fileID: -7511558181221131132, guid: f9e6ebc9235ae1c44a7223019e16f234, type: 3}
      propertyPath: m_Materials.Array.data[0]
      value: 
      objectReference: {fileID: 2100000, guid: 8aa8d3cb7bd78304ba9549e7c298d4f2, type: 2}
    - target: {fileID: 919132149155446097, guid: f9e6ebc9235ae1c44a7223019e16f234, type: 3}
      propertyPath: m_Name
      value: SM_Gasbottle
      objectReference: {fileID: 0}
    m_RemovedComponents: []
    m_RemovedGameObjects: []
    m_AddedGameObjects: []
    m_AddedComponents:
    - targetCorrespondingSourceObject: {fileID: 919132149155446097, guid: f9e6ebc9235ae1c44a7223019e16f234, type: 3}
      insertIndex: -1
      addedObject: {fileID: 9150165865173343140}
    - targetCorrespondingSourceObject: {fileID: 919132149155446097, guid: f9e6ebc9235ae1c44a7223019e16f234, type: 3}
      insertIndex: -1
      addedObject: {fileID: 4651968253061328661}
  m_SourcePrefab: {fileID: 100100000, guid: f9e6ebc9235ae1c44a7223019e16f234, type: 3}
--- !u!1 &7442947505486476245 stripped
GameObject:
  m_CorrespondingSourceObject: {fileID: 919132149155446097, guid: f9e6ebc9235ae1c44a7223019e16f234, type: 3}
  m_PrefabInstance: {fileID: 7749499254949514884}
  m_PrefabAsset: {fileID: 0}
--- !u!114 &9150165865173343140
MonoBehaviour:
  m_ObjectHideFlags: 0
  m_CorrespondingSourceObject: {fileID: 0}
  m_PrefabInstance: {fileID: 0}
  m_PrefabAsset: {fileID: 0}
  m_GameObject: {fileID: 7442947505486476245}
  m_Enabled: 1
  m_EditorHideFlags: 0
  m_Script: {fileID: 11500000, guid: 2330ec699d8fbd64f85a9c902d0a869c, type: 3}
  m_Name: 
  m_EditorClassIdentifier: 
  _itemType: 0
--- !u!65 &4651968253061328661
BoxCollider:
  m_ObjectHideFlags: 0
  m_CorrespondingSourceObject: {fileID: 0}
  m_PrefabInstance: {fileID: 0}
  m_PrefabAsset: {fileID: 0}
  m_GameObject: {fileID: 7442947505486476245}
  m_Material: {fileID: 0}
  m_IncludeLayers:
    serializedVersion: 2
    m_Bits: 0
  m_ExcludeLayers:
    serializedVersion: 2
    m_Bits: 0
  m_LayerOverridePriority: 0
  m_IsTrigger: 1
  m_ProvidesContacts: 0
  m_Enabled: 1
  serializedVersion: 3
  m_Size: {x: 0.07, y: 0.046294354, z: 0.07}
  m_Center: {x: 0.002994982, y: 0.0005445273, z: 0.034221213}
